Asociación e independencia entre variables
…
En caso que se encuentren datos faltantes se pueden utilizar procesos de imputación de datos, entre otros: - Usando la media de la variable - HotDeck - MICE

Valores duplicados

Podemos buscar y eliminar duplicados basados en un columna, por ejemplo, cuando esperamos tener datos únicos de un individuo y tenemos una columna para identificarlo.

## Ejemplo: acá dejamos valores únicos en la columna pH
distinct(wine_raw, pH, .keep_all = TRUE)

## # A tibble: 89 x 12
##    fixed_acidity volatile_acidity citric_acid residual_sugar chlorides
##            <dbl>            <dbl>       <dbl>          <dbl>     <dbl>
##  1           7.4            0.7          0               1.9    0.076 
##  2           7.8            0.88         0               2.6    0.098 
##  3           7.8            0.76         0.04            2.3    0.092 
##  4          11.2            0.28         0.56            1.9    0.075 
##  5           7.9            0.6          0.06            1.6    0.069 
##  6           7.3            0.65         0               1.2    0.065 
##  7           7.8            0.580        0.02            2      0.073 
##  8           7.5            0.5          0.36            6.1    0.071 
##  9           6.7            0.580        0.08            1.8    0.0970
## 10           5.6            0.615        0               1.6    0.089 
## # … with 79 more rows, and 7 more variables: free_sulfur_dioxide <dbl>,
## #   total_sulfur_dioxide <dbl>, density <dbl>, pH <dbl>, sulphates <dbl>,
## #   alcohol <dbl>, quality <dbl>

## Ejemplo: acá dejamos valores únicos en la columna density
distinct(wine_raw, density, .keep_all = TRUE)

## # A tibble: 436 x 12
##    fixed_acidity volatile_acidity citric_acid residual_sugar chlorides
##            <dbl>            <dbl>       <dbl>          <dbl>     <dbl>
##  1           7.4            0.7         0                1.9    0.076 
##  2           7.8            0.88        0                2.6    0.098 
##  3           7.8            0.76        0.04             2.3    0.092 
##  4          11.2            0.28        0.56             1.9    0.075 
##  5           7.9            0.6         0.06             1.6    0.069 
##  6           7.3            0.65        0                1.2    0.065 
##  7           6.7            0.580       0.08             1.8    0.0970
##  8           5.6            0.615       0                1.6    0.089 
##  9           7.8            0.61        0.290            1.6    0.114 
## 10           8.9            0.62        0.18             3.8    0.176 
## # … with 426 more rows, and 7 more variables: free_sulfur_dioxide <dbl>,
## #   total_sulfur_dioxide <dbl>, density <dbl>, pH <dbl>, sulphates <dbl>,
## #   alcohol <dbl>, quality <dbl>

Podemos buscar y eliminar duplicados basados en toda la fila.

distinct(wine_raw)

## # A tibble: 1,359 x 12
##    fixed_acidity volatile_acidity citric_acid residual_sugar chlorides
##            <dbl>            <dbl>       <dbl>          <dbl>     <dbl>
##  1           7.4            0.7          0               1.9    0.076 
##  2           7.8            0.88         0               2.6    0.098 
##  3           7.8            0.76         0.04            2.3    0.092 
##  4          11.2            0.28         0.56            1.9    0.075 
##  5           7.4            0.66         0               1.8    0.075 
##  6           7.9            0.6          0.06            1.6    0.069 
##  7           7.3            0.65         0               1.2    0.065 
##  8           7.8            0.580        0.02            2      0.073 
##  9           7.5            0.5          0.36            6.1    0.071 
## 10           6.7            0.580        0.08            1.8    0.0970
## # … with 1,349 more rows, and 7 more variables: free_sulfur_dioxide <dbl>,
## #   total_sulfur_dioxide <dbl>, density <dbl>, pH <dbl>, sulphates <dbl>,
## #   alcohol <dbl>, quality <dbl>
…
