Documentation de ciencia de datos
…
## 
## Attaching package: 'mice'

## The following objects are masked from 'package:base':
## 
##     cbind, rbind

Buena prctica: Evitar modificar la base de datos original

# Guardamos la base de datos en otro objeto llamado datos_completo
datos_completos <- boston_housing_xlsx
datos_completos

## # A tibble: 506 x 14
##       CRIM    ZN INDUS  CHAS   NOX    RM   AGE   DIS   RAD   TAX PTRATIO     B
##      <dbl> <dbl> <dbl> <dbl> <dbl> <dbl> <dbl> <dbl> <dbl> <dbl>   <dbl> <dbl>
##  1 0.00632  18    2.31     0 0.538  6.58  65.2  4.09     1   296    15.3  397.
##  2 0.0273    0    7.07     0 0.469  6.42  78.9  4.97     2   242    17.8  397.
##  3 0.0273    0    7.07     0 0.469  7.18  61.1  4.97     2   242    17.8  393.
##  4 0.0324    0    2.18     0 0.458  7.00  45.8  6.06     3   222    18.7  395.
##  5 0.0690    0    2.18     0 0.458  7.15  54.2  6.06     3   222    18.7  397.
##  6 0.0298    0    2.18     0 0.458  6.43  58.7  6.06     3   222    18.7  394.
##  7 0.0883   12.5  7.87     0 0.524  6.01  66.6  5.56     5   311    15.2  396.
##  8 0.145    12.5  7.87     0 0.524  6.17  96.1  5.95     5   311    15.2  397.
##  9 0.211    12.5  7.87     0 0.524  5.63 100    6.08     5   311    15.2  387.
## 10 0.170    12.5  7.87     0 0.524  6.00  85.9  6.59     5   311    15.2  387.
## #  with 496 more rows, and 2 more variables: LSTAT <dbl>, MEDV <dbl>
…
## The following object is masked from 'package:purrr':
## 
##     set_names

## The following object is masked from 'package:tidyr':
## 
##     extract

data_estandarizada %>% 
  dist %>% as.matrix() %>% add(diag(Inf, ncol(.))) %>% 
  apply(1, min) %>% enframe() %>% arrange(desc(value))

## # A tibble: 506 x 2
##    name  value
##    <chr> <dbl>
##  1 365    3.65
##  2 284    3.33
##  3 381    3.24
##  4 406    3.24
##  5 419    3.17
##  6 415    3.02
##  7 368    2.92
##  8 156    2.61
##  9 103    2.61
## 10 254    2.35
## #  with 496 more rows
…
