Análisis de texto
…
## tokens mas frecuentes
palabras <- paste(tx$texto,collapse='\n')
words <- tokenize_words(palabras,lowercase = FALSE, strip_numeric = FALSE,strip_punct = FALSE)
asdf<-table(words)
tab <- tibble(word = names(asdf), count = as.numeric(asdf))
arrange(tab,desc(count))

## # A tibble: 9,431 x 2
##    word       count
##    <chr>      <dbl>
##  1 @           6148
##  2 .           5586
##  3 de          4523
##  4 ,           3826
##  5 ?           2887
##  6 :           2611
##  7 el          2593
##  8 en          2555
##  9 Davivienda  2329
## 10 #           2303
## # … with 9,421 more rows
…
## [1] "RT davicorredores Actualizamos nuestro pronóstico de inflación ahora en davivienda esperamos una inflación de 3 97 al finalizar 2019 Conozca más aquí PresentaciónSemanal Mercados Acciones Colcap TES"

removePunctuation(as.character(tx[1,1])) # librería tm

## [1] "RT davicorredores Actualizamos nuestro pronóstico de inflación ahora en davivienda esperamos una inflación de 397 al finalizar 2019 Conozca más aquí PresentaciónSemanal Mercados Acciones Colcap TES"

Luego de hacer esta limpieza inicial cómo varían las palabras/tokens más frecuente

# frecuencias con modificaciones 
words <- tokenize_words(palabras,lowercase = TRUE, strip_numeric = FALSE,strip_punct = TRUE)
asdf<-table(words)
tab <- tibble(word = names(asdf), count = as.numeric(asdf))
arrange(tab,desc(count))

## # A tibble: 8,304 x 2
##    word       count
##    <chr>      <dbl>
##  1 de          4669
##  2 davivienda  3850
##  3 el          2977
##  4 en          2825
##  5 a           2396
##  6 la          2245
##  7 y           2108
##  8 que         2073
##  9 rt          1888
## 10 no          1422
## # … with 8,294 more rows
…
Removamos de nuestro texto las stopwords. Una vez hecha la limpieza ya podemos entonces verificar cuáles son las palabras más frecuentes en esta muestra de tweets

# con tm 
tx$texto_l <- removeWords(as.character(tx$texto),stopwords("spanish"))
palabras <- paste(tx$texto_l,collapse='\n')
words <- tokenize_words(palabras,lowercase = TRUE, strip_numeric = FALSE,strip_punct = TRUE)
asdf<-table(words)
tab <- tibble(word = names(asdf), count = as.numeric(asdf))
arrange(tab,desc(count))

## # A tibble: 8,239 x 2
##    word        count
##    <chr>       <dbl>
##  1 davivienda   3851
##  2 rt           1888
##  3 si            612
##  4 bancolombia   576
##  5 banco         522
##  6 no            510
##  7 cuenta        489
##  8 grupo         447
##  9 bancos        429
## 10 luchyb        422
## # … with 8,229 more rows

# con la funcion tokenize_words
palabras <- paste(tx$texto,collapse='\n')
words <- tokenize_words(palabras,lowercase = TRUE, strip_numeric = FALSE,strip_punct = TRUE,stopwords = stopwords::stopwords("es"))
asdf<-table(words)
tab <- tibble(word = names(asdf), count = as.numeric(asdf))
arrange(tab,desc(count))

## # A tibble: 8,127 x 2
##    word        count
##    <chr>       <dbl>
##  1 davivienda   3850
##  2 rt           1888
##  3 si            612
##  4 bancolombia   576
##  5 banco         522
##  6 cuenta        489
##  7 grupo         447
##  8 bancos        429
##  9 luchyb        422
## 10 ud            417
## # … with 8,117 more rows

n-gramas

## ngrams
# bigram
test <- tokenize_ngrams(palabras,n=2,lowercase = TRUE,stopwords = stopwords::stopwords("es"))
pre <- table(test)
tab <- tibble(ngram = names(pre), count = as.numeric(pre))
arrange(tab,desc(count))

## # A tibble: 22,092 x 2
##    ngram                  count
##    <chr>                  <dbl>
##  1 rt luchyb                402
##  2 bancolombia davivienda   268
##  3 grupo aval               246
##  4 sistema financiero       243
##  5 davivienda rt            220
##  6 banco davivienda         207
##  7 lugar equivocado         168
##  8 cuenta davivienda        160
##  9 grupo bolivar            139
## 10 davivienda ahorros       135
## # … with 22,082 more rows

# trigram
test <- tokenize_ngrams(palabras,n=3,lowercase = TRUE,stopwords = stopwords::stopwords("es"))
pre <- table(test)
tab <- tibble(ngram = names(pre), count = as.numeric(pre))
arrange(tab,desc(count))

## # A tibble: 26,726 x 2
##    ngram                           count
##    <chr>                           <dbl>
##  1 davivienda ahorros 506100124201   134
##  2 casi quiebran davivienda          132
##  3 4 x 1000                          131
##  4 davivienda año 99                 131
##  5 x 1000 si                         131
##  6 1000 si trabajaba                 130
##  7 99 cuantos bancos                 130
##  8 año 99 cuantos                    130
##  9 bancos quebraron terminamos       130
## 10 bolivar ud irresponsable          130
## # … with 26,716 more rows
…
